sim/mac_mas.vcd
$date
	Sat May  9 17:45:58 2026
$end
$version
	Icarus Verilog
$end
$timescale
	1ps
$end
$scope module tb_mac_mas_top $end
$var wire 1 ! ready $end
$var wire 16 " debug_result [15:0] $end
$var wire 16 # acc_out [15:0] $end
$var reg 16 $ a [15:0] $end
$var reg 16 % b [15:0] $end
$var reg 1 & clk $end
$var reg 1 ' en $end
$var reg 4 ( opcode [3:0] $end
$var reg 1 ) rst $end
$scope module dut $end
$var wire 16 * a [15:0] $end
$var wire 16 + acc_out [15:0] $end
$var wire 16 , b [15:0] $end
$var wire 1 & clk $end
$var wire 16 - debug_result [15:0] $end
$var wire 1 ' en $end
$var wire 4 . opcode [3:0] $end
$var wire 1 ! ready $end
$var wire 1 ) rst $end
$var wire 1 / mult_ready $end
$var wire 16 0 mult_out [15:0] $end
$var wire 1 1 addsub_ready $end
$var wire 16 2 addsub_out [15:0] $end
$var parameter 4 3 OP_MAC $end
$var parameter 4 4 OP_MAS $end
$var reg 16 5 acc [15:0] $end
$var reg 16 6 acc_pipe [15:0] $end
$var reg 1 7 add_sub $end
$scope module addsub_unit $end
$var wire 1 7 add_sub $end
$var wire 1 & clk $end
$var wire 1 1 ready $end
$var wire 1 ) rst $end
$var wire 16 8 x1 [15:0] $end
$var wire 16 9 y [15:0] $end
$var wire 16 : x2 [15:0] $end
$var wire 1 ; sign_r $end
$var wire 22 < seg_reg1_out [21:0] $end
$var wire 33 = seg_reg0_out [32:0] $end
$var wire 16 > result [15:0] $end
$var wire 16 ? reg_x2_out [15:0] $end
$var wire 16 @ reg_x1_out [15:0] $end
$var wire 1 A reg_add_sub_out $end
$var wire 1 B op_r $end
$var wire 8 C mantisa_r2 [7:0] $end
$var wire 8 D mantisa_r1 [7:0] $end
$var wire 12 E mantisa_r0 [11:0] $end
$var wire 8 F mantisa_r [7:0] $end
$var wire 11 G mant_x2 [10:0] $end
$var wire 11 H mant_x1 [10:0] $end
$var wire 8 I exp_r2 [7:0] $end
$var wire 8 J exp_r1 [7:0] $end
$var wire 8 K exp_r [7:0] $end
$var wire 1 L end4 $end
$var wire 1 M end3 $end
$var wire 1 N end2 $end
$var wire 1 O end1 $end
$var wire 1 / en $end
$var wire 8 P as_exp [7:0] $end
$scope module add_renorm0 $end
$var wire 8 Q exp [7:0] $end
$var wire 12 R mantisa [11:0] $end
$var wire 8 S mantisa_r [7:0] $end
$var wire 11 T mant_i [10:0] $end
$var wire 8 U exp_r [7:0] $end
$var wire 8 V exp_i [7:0] $end
$scope module rounder0 $end
$var wire 8 W exp_i [7:0] $end
$var wire 11 X mant_i [10:0] $end
$var wire 8 Y mant_shift_output [7:0] $end
$var wire 8 Z mant_o [7:0] $end
$var wire 9 [ mant_adder_output [8:0] $end
$var wire 8 \ exp_o [7:0] $end
$var wire 8 ] exp_adder_output [7:0] $end
$var reg 9 ^ mant_rounded [8:0] $end
$upscope $end
$upscope $end
$scope module exp_mant_logic0 $end
$var wire 1 _ sel $end
$var wire 11 ` mantisa_b_pp [10:0] $end
$var wire 11 a mantisa_b [10:0] $end
$var wire 11 b mantisa_a_pp [10:0] $end
$var wire 11 c mantisa_a [10:0] $end
$var wire 8 d exp_diff [7:0] $end
$var wire 1 e b_is_not_zero $end
$var wire 16 f b [15:0] $end
$var wire 8 g as_exp [7:0] $end
$var wire 1 h a_is_not_zero $end
$var wire 16 i a [15:0] $end
$scope module pp0 $end
$var wire 8 j exp_diff_i [7:0] $end
$var wire 8 k mant_i [7:0] $end
$var wire 11 l mant_o [10:0] $end
$var reg 11 m i_mant_o [10:0] $end
$upscope $end
$scope module pp1 $end
$var wire 8 n exp_diff_i [7:0] $end
$var wire 8 o mant_i [7:0] $end
$var wire 11 p mant_o [10:0] $end
$var reg 11 q i_mant_o [10:0] $end
$upscope $end
$upscope $end
$scope module leading_zero_norm0 $end
$var wire 8 r exp [7:0] $end
$var wire 11 s mantisa [10:0] $end
$var wire 8 t mant_o [7:0] $end
$var wire 8 u exp_o [7:0] $end
$var reg 8 v exp_r [7:0] $end
$var reg 8 w mantisa_r [7:0] $end
$scope module rounder0 $end
$var wire 8 x exp_i [7:0] $end
$var wire 11 y mant_i [10:0] $end
$var wire 8 z mant_shift_output [7:0] $end
$var wire 8 { mant_o [7:0] $end
$var wire 9 | mant_adder_output [8:0] $end
$var wire 8 } exp_o [7:0] $end
$var wire 8 ~ exp_adder_output [7:0] $end
$var reg 9 !" mant_rounded [8:0] $end
$upscope $end
$upscope $end
$scope module op_sign_logic0 $end
$var wire 1 "" add_sub $end
$var wire 11 #" mantisa_a [10:0] $end
$var wire 11 $" mantisa_b [10:0] $end
$var wire 1 %" s_a $end
$var wire 1 &" s_b $end
$var wire 12 '" sub_r2 [11:0] $end
$var wire 12 (" sub_r1 [11:0] $end
$var wire 1 )" sel $end
$var wire 12 *" add_r1 [11:0] $end
$var reg 12 +" mantisa_r [11:0] $end
$var reg 1 B op_r $end
$var reg 1 ; sign_r $end
$upscope $end
$scope module reg1en $end
$var wire 1 & clk $end
$var wire 1 ," en $end
$var wire 1 ) rst $end
$var wire 1 / d $end
$var parameter 32 -" N $end
$var reg 1 O q $end
$upscope $end
$scope module reg2en $end
$var wire 1 & clk $end
$var wire 1 O d $end
$var wire 1 ." en $end
$var wire 1 ) rst $end
$var parameter 32 /" N $end
$var reg 1 N q $end
$upscope $end
$scope module reg3en $end
$var wire 1 & clk $end
$var wire 1 N d $end
$var wire 1 0" en $end
$var wire 1 ) rst $end
$var parameter 32 1" N $end
$var reg 1 M q $end
$upscope $end
$scope module reg4en $end
$var wire 1 & clk $end
$var wire 1 M d $end
$var wire 1 2" en $end
$var wire 1 ) rst $end
$var parameter 32 3" N $end
$var reg 1 L q $end
$upscope $end
$scope module reg_add_sub $end
$var wire 1 & clk $end
$var wire 1 7 d $end
$var wire 1 ) rst $end
$var wire 1 / en $end
$var parameter 32 4" N $end
$var reg 1 A q $end
$upscope $end
$scope module seg_reg0 $end
$var wire 1 & clk $end
$var wire 33 5" d [32:0] $end
$var wire 1 O en $end
$var wire 1 ) rst $end
$var parameter 32 6" N $end
$var reg 33 7" q [32:0] $end
$upscope $end
$scope module seg_reg1 $end
$var wire 1 & clk $end
$var wire 22 8" d [21:0] $end
$var wire 1 N en $end
$var wire 1 ) rst $end
$var parameter 32 9" N $end
$var reg 22 :" q [21:0] $end
$upscope $end
$scope module x1reg $end
$var wire 1 & clk $end
$var wire 16 ;" d [15:0] $end
$var wire 1 ) rst $end
$var wire 1 / en $end
$var parameter 32 <" N $end
$var reg 16 =" q [15:0] $end
$upscope $end
$scope module x2reg $end
$var wire 1 & clk $end
$var wire 1 ) rst $end
$var wire 1 / en $end
$var wire 16 >" d [15:0] $end
$var parameter 32 ?" N $end
$var reg 16 @" q [15:0] $end
$upscope $end
$scope module yreg $end
$var wire 1 & clk $end
$var wire 16 A" d [15:0] $end
$var wire 1 M en $end
$var wire 1 ) rst $end
$var parameter 32 B" N $end
$var reg 16 C" q [15:0] $end
$upscope $end
$upscope $end
$scope module mult_unit $end
$var wire 1 & clk $end
$var wire 1 ' en $end
$var wire 1 D" p_s $end
$var wire 1 / ready $end
$var wire 1 ) rst $end
$var wire 16 E" x1 [15:0] $end
$var wire 16 F" x2 [15:0] $end
$var wire 16 G" y [15:0] $end
$var wire 8 H" sub_out [7:0] $end
$var wire 16 I" result [15:0] $end
$var wire 8 J" p_mant [7:0] $end
$var wire 8 K" p_exp [7:0] $end
$var wire 16 L" mult_out [15:0] $end
$var wire 11 M" mant_grs [10:0] $end
$var wire 8 N" exp_grs [7:0] $end
$var wire 1 O" end1 $end
$var wire 8 P" adder_out [7:0] $end
$scope module reg1en $end
$var wire 1 & clk $end
$var wire 1 ' d $end
$var wire 1 Q" en $end
$var wire 1 ) rst $end
$var parameter 32 R" N $end
$var reg 1 O" q $end
$upscope $end
$scope module rounder0 $end
$var wire 8 S" exp_i [7:0] $end
$var wire 11 T" mant_i [10:0] $end
$var wire 8 U" mant_shift_output [7:0] $end
$var wire 8 V" mant_o [7:0] $end
$var wire 9 W" mant_adder_output [8:0] $end
$var wire 8 X" exp_o [7:0] $end
$var wire 8 Y" exp_adder_output [7:0] $end
$var reg 9 Z" mant_rounded [8:0] $end
$upscope $end
$upscope $end
$upscope $end
$upscope $end
$enddefinitions $end
$comment Show the parameter values. $end
$dumpall
b1 R"
b10000 B"
b10000 ?"
b10000 <"
b10110 9"
b100001 6"
b1 4"
b1 3"
b1 1"
b1 /"
b1 -"
b1011 4
b11 3
$end
#0
$dumpvars
b10000000 Z"
b10000010 Y"
b10000001 X"
b10000001 W"
b10000000 V"
b10000000 U"
b10000000000 T"
b10000001 S"
1Q"
b0 P"
0O"
b10000001 N"
b10000000000 M"
b100000000000000 L"
b10000001 K"
b10000000 J"
b0 I"
b10000001 H"
b0 G"
b0 F"
b0 E"
0D"
b0 C"
b0 A"
b0 @"
b0 >"
b0 ="
bx ;"
b0 :"
b0 8"
b0 7"
b0 5"
12"
10"
1."
1,"
b0 +"
b0 *"
0)"
b0 ("
b0 '"
0&"
0%"
b0 $"
b0 #"
0""
b0 !"
b1 ~
b0 }
b1 |
b0 {
b0 z
b0 y
b0 x
b0 w
b0 v
b0 u
b0 t
b0 s
b0 r
b0 q
b0 p
b0 o
b0 n
b0 m
b0 l
b0 k
b0 j
b0 i
0h
b0 g
b0 f
0e
b0 d
b0 c
b0 b
b0 a
b0 `
0_
b0 ^
b1 ]
b0 \
b1 [
b0 Z
b0 Y
b0 X
b0 W
b0 V
b0 U
b0 T
b0 S
b0 R
b0 Q
b0 P
0O
0N
0M
0L
b0 K
b0 J
b0 I
b0 H
b0 G
b0 F
b0 E
b0 D
b0 C
0B
0A
b0 @
b0 ?
b0 >
b0 =
b0 <
0;
b0 :
b0 9
bx 8
x7
bx 6
bx 5
b0 2
01
b0 0
0/
b0 .
b0 -
b0 ,
bx +
b0 *
1)
b0 (
0'
0&
b0 %
b0 $
bx #
b0 "
0!
$end
#5000
07
b0 6
b0 8
b0 ;"
b0 #
b0 +
b0 5
1&
#10000
0&
#15000
1&
#20000
0&
0)
#25000
1&
#30000
b11111110000000 0
b11111110000000 :
b11111110000000 >"
b11111110000000 G"
b11111110000000 I"
b1111111 K"
b1111111 X"
b10000000 Y"
b1111111 N"
b1111111 S"
b1111111 H"
b11111110 P"
0&
1'
b11111110000000 %
b11111110000000 ,
b11111110000000 F"
b11111110000000 $
b11111110000000 *
b11111110000000 E"
b11 (
b11 .
#35000
1/
1O"
1&
#40000
0&
0'
#45000
b10000000000 G
b10000000000 a
b10000000 o
b11111110000000000010000000000 5"
1e
b1111111 P
b1111111 g
b1111111 d
b1111111 j
b1111111 n
1O
b11111110000000 ?
b11111110000000 f
b11111110000000 @"
0/
0O"
1&
#50000
0&
#55000
b10000000000 E
b10000000000 +"
b1000000000001111111 8"
b10000000000 *"
b110000000000 ("
b10000000000 '"
b10000000000 $"
b11111110000000000010000000000 =
b11111110000000000010000000000 7"
0O
1N
1&
#60000
0&
#65000
b11111110000000 >
b11111110000000 A"
b10000000 F
b10000000 C
b10000000 S
b10000000 Z
b1111111 J
b1111111 v
b10000000 D
b10000000 w
b10000000 ^
b10000000 t
b10000000 {
b10000000 Y
b10000001 [
b10000000 !"
b1111111 K
b10000000 z
b1111111 I
b1111111 U
b1111111 \
b10000000000 T
b10000000000 X
b10000001 |
b10000000 ]
b1111111 V
b1111111 W
b1111111 u
b1111111 }
b1111111 Q
b10000000000 R
b10000000 ~
b1111111 r
b1111111 x
b10000000000 s
b10000000000 y
1M
0N
b1000000000001111111 <
b1000000000001111111 :"
1&
#70000
0&
#75000
b11111110000000 "
b11111110000000 -
b11111110000000 2
b11111110000000 9
b11111110000000 C"
0M
1!
11
1L
1&
#80000
0&
#85000
0!
01
0L
b11111110000000 #
b11111110000000 +
b11111110000000 5
1&
#90000
0&
#95000
1&
#100000
0&
#105000
1/
1O"
b11111110000000 6
b11111110000000 8
b11111110000000 ;"
17
1&
1'
b1011 (
b1011 .
#110000
0&
#115000
b10000000000 H
b10000000000 c
b10000000000 b
b10000000000 l
b10000000000 m
b10000000 k
1h
b10000000000 `
b10000000000 p
b10000000000 q
b0 d
b0 j
b0 n
b1011111111000000000010000000000 5"
0/
0O"
b11111110000000 @
b11111110000000 i
b11111110000000 ="
1A
1O
1&
0'
#120000
0&
#125000
b1100000000000001111111 8"
1B
1;
b0 E
b0 +"
b100000000000 *"
b0 ("
b0 '"
1""
b10000000000 #"
1N
0O
b1011111111000000000010000000000 =
b1011111111000000000010000000000 7"
1&
#130000
0&
#135000
b0 C
b0 S
b0 Z
b0 K
b0 F
b0 J
b0 v
b0 D
b0 w
b0 ^
b0 t
b0 {
b0 Y
b1 [
b0 !"
b0 z
b0 >
b0 A"
b0 T
b0 X
b1 |
b0 R
b0 s
b0 y
b1100000000000001111111 <
b1100000000000001111111 :"
0N
1M
1&
#140000
0&
#145000
1!
11
1L
0M
b0 "
b0 -
b0 2
b0 9
b0 C"
1&
#150000
0&
#155000
0!
01
0L
b0 #
b0 +
b0 5
1&
